D:\Challeng-3\src\main\java\Median.java
D:\Challeng-3\src\main\java\Modus.java
D:\Challeng-3\src\main\java\BacadanSimpan.java
D:\Challeng-3\src\main\java\WriteMean.java
D:\Challeng-3\src\main\java\Mean.java
D:\Challeng-3\src\main\java\WriteFreq.java
D:\Challeng-3\src\main\java\app.java
D:\Challeng-3\src\main\java\Frekuensi.java
D:\Challeng-3\src\main\java\Menu.java
D:\Challeng-3\src\main\java\BlurTulis.java
D:\Challeng-3\src\main\java\wahyuprihantono\intrface.java
